updated : Sun Sep 27 17:28:14 UTC 2020
updated : Sun Sep 27 21:20:18 UTC 2020
updated : Sun Sep 27 22:12:32 UTC 2020
updated : Mon Sep 28 02:43:07 UTC 2020
updated : Mon Sep 28 03:28:07 UTC 2020
updated : Mon Sep 28 17:27:17 UTC 2020
updated : Mon Sep 28 17:50:42 UTC 2020
updated : Mon Sep 28 17:51:07 UTC 2020
updated : Mon Sep 28 17:51:33 UTC 2020
updated : Tue Sep 29 02:50:45 UTC 2020
updated : Tue Sep 29 13:01:17 UTC 2020
updated : Tue Sep 29 23:42:30 UTC 2020
updated : Tue Sep 29 23:45:00 UTC 2020
updated : Wed Sep 30 23:40:00 UTC 2020
updated : Fri Oct  2 00:01:23 UTC 2020
updated : Fri Oct  2 06:01:27 UTC 2020
updated : Fri Oct  2 12:01:21 UTC 2020
updated : Fri Oct  2 18:01:24 UTC 2020
updated : Sat Oct  3 00:01:25 UTC 2020
updated : Sat Oct  3 06:01:25 UTC 2020
updated : Sat Oct  3 12:01:29 UTC 2020
updated : Sat Oct  3 16:58:46 UTC 2020
updated : Sat Oct  3 17:08:15 UTC 2020
updated : Sat Oct  3 18:02:13 UTC 2020
updated : Sun Oct  4 00:01:13 UTC 2020
updated : Sun Oct  4 06:01:25 UTC 2020
updated : Sun Oct  4 12:01:15 UTC 2020
updated : Sun Oct  4 18:01:16 UTC 2020
updated : Mon Oct  5 00:01:23 UTC 2020
updated : Mon Oct  5 06:01:18 UTC 2020
updated : Mon Oct  5 12:01:20 UTC 2020
updated : Thu Oct  8 03:01:53 UTC 2020
updated : Thu Oct  8 03:02:06 UTC 2020
updated : Thu Oct  8 03:02:31 UTC 2020
updated : Thu Oct  8 03:03:10 UTC 2020
updated : Thu Oct  8 03:08:23 UTC 2020
updated : Thu Oct  8 03:09:57 UTC 2020
updated : Thu Oct  8 06:01:15 UTC 2020
updated : Thu Oct  8 12:01:18 UTC 2020
updated : Thu Oct  8 18:01:19 UTC 2020
updated : Fri Oct  9 00:01:16 UTC 2020
updated : Fri Oct  9 06:01:22 UTC 2020
updated : Fri Oct  9 12:01:18 UTC 2020
updated : Fri Oct  9 18:01:21 UTC 2020
updated : Sat Oct 10 00:01:20 UTC 2020
updated : Sat Oct 10 06:01:19 UTC 2020
updated : Sat Oct 10 12:01:19 UTC 2020
updated : Sat Oct 10 18:01:17 UTC 2020
updated : Sun Oct 11 00:01:17 UTC 2020
updated : Sun Oct 11 06:01:19 UTC 2020
updated : Sun Oct 11 12:01:17 UTC 2020
updated : Sun Oct 11 18:01:21 UTC 2020
updated : Mon Oct 12 00:01:22 UTC 2020
updated : Mon Oct 12 06:01:17 UTC 2020
updated : Mon Oct 12 12:01:22 UTC 2020
updated : Mon Oct 12 18:01:19 UTC 2020
updated : Tue Oct 13 00:01:13 UTC 2020
updated : Tue Oct 13 06:01:21 UTC 2020
updated : Tue Oct 13 12:01:22 UTC 2020
updated : Tue Oct 13 18:01:16 UTC 2020
updated : Wed Oct 14 00:01:18 UTC 2020
updated : Wed Oct 14 06:01:19 UTC 2020
updated : Wed Oct 14 12:01:18 UTC 2020
updated : Wed Oct 14 18:01:17 UTC 2020
updated : Thu Oct 15 00:01:15 UTC 2020
updated : Thu Oct 15 06:01:15 UTC 2020
updated : Thu Oct 15 12:01:19 UTC 2020
updated : Thu Oct 15 18:01:22 UTC 2020
updated : Fri Oct 16 00:01:18 UTC 2020
updated : Fri Oct 16 06:01:26 UTC 2020
updated : Fri Oct 16 12:01:21 UTC 2020
updated : Fri Oct 16 18:01:23 UTC 2020
updated : Sat Oct 17 00:01:15 UTC 2020
updated : Sat Oct 17 06:01:17 UTC 2020
updated : Sat Oct 17 12:01:27 UTC 2020
updated : Sat Oct 17 18:01:19 UTC 2020
updated : Sun Oct 18 00:01:19 UTC 2020
updated : Sun Oct 18 06:01:19 UTC 2020
updated : Sun Oct 18 12:01:22 UTC 2020
updated : Sun Oct 18 18:01:17 UTC 2020
updated : Mon Oct 19 00:01:14 UTC 2020
updated : Mon Oct 19 06:01:23 UTC 2020
updated : Mon Oct 19 12:01:20 UTC 2020
updated : Mon Oct 19 18:01:18 UTC 2020
updated : Tue Oct 20 00:01:25 UTC 2020
updated : Tue Oct 20 06:01:22 UTC 2020
updated : Tue Oct 20 12:01:14 UTC 2020
updated : Tue Oct 20 18:01:19 UTC 2020
updated : Wed Oct 21 00:01:14 UTC 2020
updated : Wed Oct 21 06:01:16 UTC 2020
updated : Wed Oct 21 12:01:17 UTC 2020
updated : Wed Oct 21 18:01:17 UTC 2020
updated : Thu Oct 22 00:01:22 UTC 2020
updated : Thu Oct 22 06:01:18 UTC 2020
updated : Thu Oct 22 12:01:19 UTC 2020
updated : Thu Oct 22 18:01:19 UTC 2020
updated : Fri Oct 23 00:01:21 UTC 2020
updated : Fri Oct 23 06:01:19 UTC 2020
updated : Fri Oct 23 12:01:21 UTC 2020
updated : Fri Oct 23 18:01:15 UTC 2020
updated : Sat Oct 24 00:01:15 UTC 2020
updated : Sat Oct 24 06:01:14 UTC 2020
updated : Sat Oct 24 12:01:17 UTC 2020
updated : Sat Oct 24 18:01:15 UTC 2020
updated : Sun Oct 25 00:01:16 UTC 2020
updated : Sun Oct 25 06:01:17 UTC 2020
updated : Sun Oct 25 12:01:13 UTC 2020
updated : Sun Oct 25 18:01:18 UTC 2020
updated : Mon Oct 26 00:01:20 UTC 2020
updated : Mon Oct 26 06:01:14 UTC 2020
updated : Mon Oct 26 12:01:16 UTC 2020
updated : Mon Oct 26 18:01:19 UTC 2020
updated : Tue Oct 27 00:01:22 UTC 2020
updated : Tue Oct 27 06:01:18 UTC 2020
updated : Tue Oct 27 12:01:20 UTC 2020
updated : Tue Oct 27 18:01:18 UTC 2020
updated : Wed Oct 28 00:01:15 UTC 2020
updated : Wed Oct 28 06:01:22 UTC 2020
updated : Wed Oct 28 12:01:23 UTC 2020
updated : Wed Oct 28 18:01:17 UTC 2020
updated : Thu Oct 29 00:01:13 UTC 2020
updated : Thu Oct 29 06:01:16 UTC 2020
updated : Thu Oct 29 12:01:22 UTC 2020
updated : Thu Oct 29 18:01:25 UTC 2020
updated : Fri Oct 30 00:01:16 UTC 2020
updated : Fri Oct 30 06:01:13 UTC 2020
updated : Fri Oct 30 12:01:16 UTC 2020
updated : Fri Oct 30 18:01:18 UTC 2020
updated : Sat Oct 31 00:01:23 UTC 2020
updated : Sat Oct 31 06:01:22 UTC 2020
updated : Sat Oct 31 12:01:17 UTC 2020
updated : Sat Oct 31 18:01:21 UTC 2020
updated : Sun Nov  1 00:01:15 UTC 2020
updated : Sun Nov  1 06:01:20 UTC 2020
updated : Sun Nov  1 12:01:15 UTC 2020
updated : Sun Nov  1 18:01:14 UTC 2020
updated : Mon Nov  2 00:01:19 UTC 2020
updated : Mon Nov  2 06:01:19 UTC 2020
updated : Mon Nov  2 12:01:17 UTC 2020
updated : Mon Nov  2 18:01:22 UTC 2020
updated : Tue Nov  3 00:01:20 UTC 2020
updated : Tue Nov  3 06:01:24 UTC 2020
updated : Tue Nov  3 12:01:16 UTC 2020
updated : Tue Nov  3 18:01:23 UTC 2020
updated : Wed Nov  4 00:01:22 UTC 2020
updated : Wed Nov  4 06:01:22 UTC 2020
updated : Wed Nov  4 12:01:19 UTC 2020
updated : Wed Nov  4 18:01:17 UTC 2020
updated : Thu Nov  5 00:01:13 UTC 2020
updated : Thu Nov  5 06:01:20 UTC 2020
updated : Thu Nov  5 12:01:14 UTC 2020
updated : Thu Nov  5 18:01:22 UTC 2020
updated : Fri Nov  6 00:01:15 UTC 2020
updated : Fri Nov  6 06:01:23 UTC 2020
updated : Fri Nov  6 12:01:21 UTC 2020
updated : Fri Nov  6 18:01:17 UTC 2020
updated : Sat Nov  7 00:01:21 UTC 2020
updated : Sat Nov  7 06:01:32 UTC 2020
updated : Sat Nov  7 12:01:44 UTC 2020
updated : Sat Nov  7 18:01:16 UTC 2020
updated : Sun Nov  8 00:01:20 UTC 2020
updated : Sun Nov  8 06:01:16 UTC 2020
updated : Sun Nov  8 12:01:20 UTC 2020
updated : Sun Nov  8 18:01:19 UTC 2020
updated : Mon Nov  9 00:01:19 UTC 2020
updated : Mon Nov  9 06:01:16 UTC 2020
updated : Mon Nov  9 12:01:15 UTC 2020
updated : Mon Nov  9 18:01:23 UTC 2020
updated : Tue Nov 10 00:01:23 UTC 2020
updated : Tue Nov 10 06:01:21 UTC 2020
updated : Tue Nov 10 12:01:20 UTC 2020
updated : Tue Nov 10 18:01:14 UTC 2020
updated : Wed Nov 11 00:01:23 UTC 2020
updated : Wed Nov 11 06:01:26 UTC 2020
updated : Wed Nov 11 12:01:15 UTC 2020
updated : Wed Nov 11 18:01:21 UTC 2020
updated : Thu Nov 12 00:01:15 UTC 2020
updated : Thu Nov 12 06:01:20 UTC 2020
updated : Thu Nov 12 12:01:19 UTC 2020
updated : Thu Nov 12 18:01:17 UTC 2020
updated : Fri Nov 13 00:01:23 UTC 2020
updated : Fri Nov 13 06:01:18 UTC 2020
updated : Fri Nov 13 12:01:15 UTC 2020
updated : Fri Nov 13 18:01:16 UTC 2020
updated : Sat Nov 14 00:01:13 UTC 2020
updated : Sat Nov 14 06:01:21 UTC 2020
updated : Sat Nov 14 12:01:19 UTC 2020
updated : Sun Nov 22 18:24:51 UTC 2020
updated : Mon Dec 28 07:41:23 PM CST 2020
updated : Mon Dec 28 07:45:49 PM CST 2020
updated : Mon Dec 28 07:48:01 PM CST 2020
updated : Tue Dec 29 01:51:40 UTC 2020
updated : Tue Dec 29 01:55:32 UTC 2020
updated : Tue Dec 29 06:01:20 UTC 2020
updated : Tue Dec 29 12:01:20 UTC 2020
updated : Tue Dec 29 18:01:24 UTC 2020
updated : Wed Dec 30 00:01:23 UTC 2020
updated : Wed Dec 30 06:01:18 UTC 2020
updated : Wed Dec 30 12:01:18 UTC 2020
updated : Wed Dec 30 18:01:26 UTC 2020
updated : Thu Dec 31 00:01:25 UTC 2020
updated : Thu Dec 31 06:01:24 UTC 2020
updated : Thu Dec 31 12:01:24 UTC 2020
updated : Thu Dec 31 18:01:26 UTC 2020
updated : Fri Jan  1 00:01:25 UTC 2021
updated : Fri Jan  1 06:01:24 UTC 2021
updated : Fri Jan  1 12:01:24 UTC 2021
updated : Fri Jan  1 18:01:16 UTC 2021
updated : Sat Jan  2 00:01:16 UTC 2021
updated : Sat Jan  2 06:01:26 UTC 2021
updated : Sat Jan  2 12:01:20 UTC 2021
updated : Sat Jan  2 18:01:15 UTC 2021
updated : Sun Jan  3 00:01:21 UTC 2021
updated : Sun Jan  3 06:01:19 UTC 2021
updated : Sun Jan  3 12:01:24 UTC 2021
updated : Sun Jan  3 18:01:23 UTC 2021
updated : Mon Jan  4 00:01:22 UTC 2021
updated : Mon Jan  4 06:01:14 UTC 2021
updated : Mon Jan  4 12:01:18 UTC 2021
updated : Mon Jan  4 18:01:24 UTC 2021
updated : Tue Jan  5 00:01:19 UTC 2021
updated : Tue Jan  5 06:01:16 UTC 2021
updated : Tue Jan  5 12:01:18 UTC 2021
updated : Tue Jan  5 18:01:22 UTC 2021
updated : Wed Jan  6 00:01:17 UTC 2021
updated : Wed Jan  6 06:01:14 UTC 2021
updated : Wed Jan  6 12:01:16 UTC 2021
updated : Wed Jan  6 18:01:16 UTC 2021
updated : Thu Jan  7 00:01:15 UTC 2021
updated : Thu Jan  7 06:01:15 UTC 2021
updated : Thu Jan  7 12:01:23 UTC 2021
updated : Thu Jan  7 18:01:21 UTC 2021
updated : Fri Jan  8 00:01:21 UTC 2021
updated : Fri Jan  8 06:01:27 UTC 2021
updated : Fri Jan  8 12:01:20 UTC 2021
updated : Fri Jan  8 18:01:17 UTC 2021
updated : Sat Jan  9 00:01:14 UTC 2021
updated : Sat Jan  9 06:01:16 UTC 2021
updated : Sat Jan  9 12:01:18 UTC 2021
updated : Sat Jan  9 18:01:22 UTC 2021
updated : Sun Jan 10 00:01:25 UTC 2021
updated : Sun Jan 10 06:01:24 UTC 2021
updated : Sun Jan 10 12:01:18 UTC 2021
updated : Sun Jan 10 18:01:17 UTC 2021
updated : Mon Jan 11 00:01:22 UTC 2021
updated : Mon Jan 11 06:01:20 UTC 2021
updated : Mon Jan 11 12:01:20 UTC 2021
updated : Mon Jan 11 18:01:17 UTC 2021
updated : Tue Jan 12 00:01:18 UTC 2021
updated : Tue Jan 12 06:01:20 UTC 2021
updated : Tue Jan 12 12:01:22 UTC 2021
updated : Tue Jan 12 18:01:27 UTC 2021
updated : Wed Jan 13 00:01:20 UTC 2021
updated : Wed Jan 13 06:01:21 UTC 2021
updated : Wed Jan 13 12:01:18 UTC 2021
updated : Wed Jan 13 18:01:22 UTC 2021
updated : Thu Jan 14 00:01:17 UTC 2021
updated : Thu Jan 14 06:01:24 UTC 2021
updated : Thu Jan 14 12:01:29 UTC 2021
updated : Thu Jan 14 18:01:21 UTC 2021
updated : Fri Jan 15 00:01:15 UTC 2021
updated : Fri Jan 15 06:01:20 UTC 2021
updated : Fri Jan 15 12:01:19 UTC 2021
updated : Fri Jan 15 18:01:21 UTC 2021
updated : Sat Jan 16 00:01:25 UTC 2021
updated : Sat Jan 16 06:01:21 UTC 2021
updated : Sat Jan 16 12:01:22 UTC 2021
updated : Sat Jan 16 18:01:23 UTC 2021
updated : Sun Jan 17 00:01:21 UTC 2021
updated : Sun Jan 17 06:01:17 UTC 2021
updated : Sun Jan 17 12:01:35 UTC 2021
updated : Sun Jan 17 18:01:22 UTC 2021
updated : Mon Jan 18 00:01:24 UTC 2021
updated : Mon Jan 18 06:01:19 UTC 2021
updated : Mon Jan 18 12:01:22 UTC 2021
updated : Mon Jan 18 18:01:38 UTC 2021
updated : Tue Jan 19 00:01:16 UTC 2021
updated : Tue Jan 19 06:01:17 UTC 2021
updated : Tue Jan 19 12:01:20 UTC 2021
updated : Tue Jan 19 18:01:15 UTC 2021
updated : Wed Jan 20 00:01:21 UTC 2021
updated : Wed Jan 20 06:01:24 UTC 2021
updated : Wed Jan 20 12:01:23 UTC 2021
updated : Wed Jan 20 18:01:17 UTC 2021
updated : Thu Jan 21 00:01:21 UTC 2021
updated : Thu Jan 21 06:01:21 UTC 2021
updated : Thu Jan 21 12:01:18 UTC 2021
updated : Thu Jan 21 18:01:18 UTC 2021
updated : Fri Jan 22 00:01:24 UTC 2021
updated : Fri Jan 22 06:01:23 UTC 2021
updated : Fri Jan 22 12:01:16 UTC 2021
updated : Fri Jan 22 18:01:16 UTC 2021
updated : Sat Jan 23 00:01:21 UTC 2021
updated : Sat Jan 23 06:01:22 UTC 2021
updated : Sat Jan 23 12:01:22 UTC 2021
updated : Sat Jan 23 18:01:21 UTC 2021
updated : Sun Jan 24 00:01:22 UTC 2021
updated : Sun Jan 24 06:01:24 UTC 2021
updated : Sun Jan 24 12:01:24 UTC 2021
updated : Tue Feb  9 00:01:23 UTC 2021
updated : Tue Feb  9 06:01:20 UTC 2021
updated : Tue Feb  9 12:01:23 UTC 2021
updated : Tue Feb  9 18:01:20 UTC 2021
updated : Wed Feb 10 00:01:14 UTC 2021
updated : Wed Feb 10 06:01:24 UTC 2021
updated : Wed Feb 10 12:01:15 UTC 2021
updated : Wed Feb 10 18:01:16 UTC 2021
updated : Thu Feb 11 00:01:22 UTC 2021
updated : Thu Feb 11 06:01:19 UTC 2021
updated : Thu Feb 11 12:01:19 UTC 2021
updated : Thu Feb 11 18:01:18 UTC 2021
updated : Fri Feb 12 00:01:25 UTC 2021
updated : Fri Feb 12 06:01:15 UTC 2021
updated : Fri Feb 12 12:01:17 UTC 2021
updated : Fri Feb 12 18:01:14 UTC 2021
updated : Sat Feb 13 00:01:15 UTC 2021
updated : Sat Feb 13 06:01:15 UTC 2021
updated : Sat Feb 13 12:01:23 UTC 2021
updated : Sat Feb 13 18:01:15 UTC 2021
updated : Sun Feb 14 00:01:25 UTC 2021
updated : Sun Feb 14 06:01:24 UTC 2021
updated : Sun Feb 14 12:01:16 UTC 2021
updated : Sun Feb 14 18:01:21 UTC 2021
updated : Mon Feb 15 00:01:17 UTC 2021
updated : Mon Feb 15 06:01:18 UTC 2021
updated : Mon Feb 15 12:01:21 UTC 2021
updated : Mon Feb 15 18:01:18 UTC 2021
updated : Tue Feb 16 00:01:28 UTC 2021
updated : Tue Feb 16 06:01:22 UTC 2021
updated : Tue Feb 16 12:01:22 UTC 2021
updated : Tue Feb 16 18:01:20 UTC 2021
updated : Wed Feb 17 00:01:18 UTC 2021
updated : Wed Feb 17 06:01:21 UTC 2021
updated : Wed Feb 17 12:01:22 UTC 2021
updated : Wed Feb 17 18:01:19 UTC 2021
updated : Thu Feb 18 00:01:21 UTC 2021
updated : Thu Feb 18 06:01:23 UTC 2021
updated : Thu Feb 18 12:01:21 UTC 2021
updated : Thu Feb 18 18:01:26 UTC 2021
updated : Fri Feb 19 00:01:21 UTC 2021
updated : Fri Feb 19 06:01:22 UTC 2021
updated : Fri Feb 19 12:01:15 UTC 2021
updated : Fri Feb 19 18:01:21 UTC 2021
updated : Sat Feb 20 00:01:14 UTC 2021
updated : Sat Feb 20 06:01:21 UTC 2021
updated : Sat Feb 20 12:01:23 UTC 2021
updated : Sat Feb 20 18:01:21 UTC 2021
updated : Sun Feb 21 00:01:23 UTC 2021
updated : Sun Feb 21 06:01:21 UTC 2021
updated : Sun Feb 21 12:01:21 UTC 2021
updated : Sun Feb 21 18:01:23 UTC 2021
updated : Mon Feb 22 00:01:20 UTC 2021
updated : Mon Feb 22 06:01:18 UTC 2021
updated : Mon Feb 22 12:01:17 UTC 2021
updated : Mon Feb 22 18:01:15 UTC 2021
updated : Tue Feb 23 00:01:16 UTC 2021
updated : Tue Feb 23 06:01:24 UTC 2021
updated : Tue Feb 23 12:01:17 UTC 2021
updated : Tue Feb 23 18:01:18 UTC 2021
updated : Wed Feb 24 00:01:17 UTC 2021
updated : Wed Feb 24 06:01:26 UTC 2021
updated : Wed Feb 24 12:01:18 UTC 2021
updated : Wed Feb 24 18:01:20 UTC 2021
updated : Thu Feb 25 00:01:28 UTC 2021
updated : Thu Feb 25 06:01:18 UTC 2021
updated : Thu Feb 25 12:01:16 UTC 2021
updated : Thu Feb 25 18:01:21 UTC 2021
updated : Fri Feb 26 00:01:15 UTC 2021
updated : Fri Feb 26 06:01:24 UTC 2021
updated : Fri Feb 26 12:01:15 UTC 2021
updated : Fri Feb 26 18:01:18 UTC 2021
updated : Sat Feb 27 00:01:18 UTC 2021
updated : Sat Feb 27 06:01:17 UTC 2021
updated : Sat Feb 27 12:01:23 UTC 2021
updated : Sat Feb 27 18:01:25 UTC 2021
updated : Sun Feb 28 00:01:24 UTC 2021
updated : Sun Feb 28 06:01:23 UTC 2021
updated : Sun Feb 28 12:01:15 UTC 2021
updated : Sun Feb 28 18:01:23 UTC 2021
updated : Mon Mar  1 00:01:23 UTC 2021
updated : Mon Mar  1 06:01:17 UTC 2021
updated : Mon Mar  1 12:01:16 UTC 2021
updated : Mon Mar  1 18:01:19 UTC 2021
updated : Tue Mar  2 00:01:20 UTC 2021
updated : Tue Mar  2 06:01:18 UTC 2021
updated : Tue Mar  2 12:01:16 UTC 2021
updated : Tue Mar  2 18:01:26 UTC 2021
updated : Wed Mar  3 00:01:17 UTC 2021
updated : Wed Mar  3 06:01:15 UTC 2021
updated : Wed Mar  3 12:01:16 UTC 2021
updated : Wed Mar  3 18:01:24 UTC 2021
updated : Thu Mar  4 00:01:21 UTC 2021
updated : Thu Mar  4 06:01:23 UTC 2021
updated : Thu Mar  4 12:01:24 UTC 2021
updated : Thu Mar  4 18:01:30 UTC 2021
updated : Fri Mar  5 00:01:25 UTC 2021
updated : Fri Mar  5 06:01:18 UTC 2021
updated : Fri Mar  5 12:01:23 UTC 2021
updated : Fri Mar  5 18:01:21 UTC 2021
updated : Sat Mar  6 00:01:20 UTC 2021
updated : Sat Mar  6 06:01:16 UTC 2021
updated : Sat Mar  6 12:01:14 UTC 2021
updated : Sat Mar  6 18:01:19 UTC 2021
updated : Sun Mar  7 00:01:22 UTC 2021
updated : Sun Mar  7 06:01:17 UTC 2021
updated : Sun Mar  7 12:01:20 UTC 2021
updated : Sun Mar  7 18:01:24 UTC 2021
updated : Mon Mar  8 00:01:20 UTC 2021
updated : Mon Mar  8 06:01:16 UTC 2021
updated : Mon Mar  8 12:01:23 UTC 2021
updated : Mon Mar  8 18:01:18 UTC 2021
updated : Tue Mar  9 00:01:16 UTC 2021
updated : Tue Mar  9 12:01:16 UTC 2021
updated : Tue Mar  9 18:01:30 UTC 2021
updated : Wed Mar 10 00:01:19 UTC 2021
updated : Wed Mar 10 06:01:16 UTC 2021
updated : Wed Mar 10 12:01:26 UTC 2021
updated : Wed Mar 10 18:01:19 UTC 2021
updated : Thu Mar 11 00:01:23 UTC 2021
updated : Thu Mar 11 06:01:23 UTC 2021
updated : Thu Mar 11 12:01:16 UTC 2021
updated : Thu Mar 11 18:01:15 UTC 2021
updated : Fri Mar 12 00:01:14 UTC 2021
updated : Fri Mar 12 06:01:16 UTC 2021
updated : Fri Mar 12 12:01:21 UTC 2021
updated : Fri Mar 12 18:01:18 UTC 2021
updated : Sat Mar 13 00:01:18 UTC 2021
updated : Sat Mar 13 06:01:23 UTC 2021
updated : Sat Mar 13 12:01:23 UTC 2021
updated : Sat Mar 13 18:01:17 UTC 2021
updated : Sun Mar 14 00:01:22 UTC 2021
updated : Sun Mar 14 06:01:24 UTC 2021
updated : Sun Mar 14 12:01:29 UTC 2021
updated : Sun Mar 14 18:01:20 UTC 2021
updated : Mon Mar 15 00:01:18 UTC 2021
updated : Mon Mar 15 06:01:20 UTC 2021
updated : Mon Mar 15 18:01:22 UTC 2021
updated : Tue Mar 16 00:01:21 UTC 2021
updated : Tue Mar 16 06:01:24 UTC 2021
updated : Tue Mar 16 12:01:26 UTC 2021
updated : Tue Mar 16 18:01:17 UTC 2021
updated : Wed Mar 17 00:01:26 UTC 2021
updated : Wed Mar 17 06:01:22 UTC 2021
updated : Wed Mar 17 12:01:26 UTC 2021
updated : Wed Mar 17 18:01:17 UTC 2021
updated : Thu Mar 18 00:01:17 UTC 2021
updated : Thu Mar 18 06:01:16 UTC 2021
updated : Thu Mar 18 12:02:00 UTC 2021
updated : Thu Mar 18 18:01:15 UTC 2021
updated : Fri Mar 19 00:01:22 UTC 2021
updated : Fri Mar 19 06:01:24 UTC 2021
updated : Fri Mar 19 12:01:17 UTC 2021
updated : Fri Mar 19 18:01:18 UTC 2021
updated : Sat Mar 20 00:01:20 UTC 2021
updated : Sat Mar 20 06:01:36 UTC 2021
updated : Sat Mar 20 12:01:23 UTC 2021
updated : Sat Mar 20 18:01:31 UTC 2021
updated : Sun Mar 21 00:01:23 UTC 2021
updated : Sun Mar 21 06:01:30 UTC 2021
updated : Sun Mar 21 12:01:15 UTC 2021
updated : Sun Mar 21 18:01:28 UTC 2021
updated : Mon Mar 22 00:01:24 UTC 2021
updated : Mon Mar 22 06:01:16 UTC 2021
updated : Mon Mar 22 12:01:15 UTC 2021
updated : Mon Mar 22 18:01:20 UTC 2021
updated : Tue Mar 23 00:01:21 UTC 2021
updated : Tue Mar 23 06:01:19 UTC 2021
updated : Tue Mar 23 12:01:18 UTC 2021
updated : Tue Mar 23 18:01:20 UTC 2021
updated : Wed Mar 24 00:01:36 UTC 2021
updated : Wed Mar 24 06:01:20 UTC 2021
updated : Wed Mar 24 18:01:22 UTC 2021
updated : Thu Mar 25 00:01:22 UTC 2021
updated : Thu Mar 25 06:01:19 UTC 2021
updated : Thu Mar 25 12:01:22 UTC 2021
updated : Thu Mar 25 18:01:19 UTC 2021
updated : Fri Mar 26 00:01:20 UTC 2021
updated : Fri Mar 26 06:01:24 UTC 2021
updated : Fri Mar 26 12:01:16 UTC 2021
updated : Fri Mar 26 18:01:18 UTC 2021
updated : Sat Mar 27 00:01:20 UTC 2021
updated : Sat Mar 27 06:01:23 UTC 2021
updated : Sat Mar 27 12:01:23 UTC 2021
updated : Sat Mar 27 18:01:22 UTC 2021
updated : Sun Mar 28 00:01:20 UTC 2021
updated : Sun Mar 28 06:01:25 UTC 2021
updated : Sun Mar 28 12:01:15 UTC 2021
updated : Sun Mar 28 18:01:21 UTC 2021
updated : Mon Mar 29 00:01:23 UTC 2021
updated : Mon Mar 29 06:01:31 UTC 2021
updated : Mon Mar 29 12:01:18 UTC 2021
updated : Mon Mar 29 18:01:20 UTC 2021
updated : Tue Mar 30 00:01:24 UTC 2021
updated : Tue Mar 30 06:01:16 UTC 2021
updated : Tue Mar 30 12:01:29 UTC 2021
updated : Tue Mar 30 18:01:20 UTC 2021
updated : Wed Mar 31 00:01:34 UTC 2021
updated : Wed Mar 31 06:01:14 UTC 2021
updated : Wed Mar 31 12:01:16 UTC 2021
updated : Wed Mar 31 18:01:26 UTC 2021
updated : Thu Apr  1 00:01:17 UTC 2021
updated : Thu Apr  1 06:01:22 UTC 2021
updated : Thu Apr  1 12:01:23 UTC 2021
updated : Thu Apr  1 18:01:20 UTC 2021
updated : Fri Apr  2 00:01:19 UTC 2021
updated : Fri Apr  2 06:01:18 UTC 2021
updated : Fri Apr  2 12:01:15 UTC 2021
updated : Fri Apr  2 18:01:15 UTC 2021
updated : Sat Apr  3 00:01:23 UTC 2021
updated : Sat Apr  3 06:01:22 UTC 2021
updated : Sat Apr  3 12:01:15 UTC 2021
updated : Sat Apr  3 18:01:25 UTC 2021
updated : Sun Apr  4 00:01:21 UTC 2021
updated : Sun Apr  4 06:01:25 UTC 2021
updated : Sun Apr  4 12:01:28 UTC 2021
updated : Sun Apr  4 18:01:56 UTC 2021
updated : Mon Apr  5 00:01:30 UTC 2021
updated : Mon Apr  5 06:01:33 UTC 2021
updated : Mon Apr  5 12:01:20 UTC 2021
updated : Mon Apr  5 18:01:22 UTC 2021
updated : Tue Apr  6 00:01:18 UTC 2021
updated : Tue Apr  6 06:01:21 UTC 2021
updated : Tue Apr  6 12:01:19 UTC 2021
updated : Tue Apr  6 18:01:20 UTC 2021
updated : Wed Apr  7 00:01:23 UTC 2021
updated : Wed Apr  7 06:01:29 UTC 2021
updated : Wed Apr  7 12:01:20 UTC 2021
updated : Wed Apr  7 18:01:17 UTC 2021
updated : Thu Apr  8 00:01:22 UTC 2021
updated : Thu Apr  8 06:01:25 UTC 2021
updated : Thu Apr  8 12:01:28 UTC 2021
updated : Thu Apr  8 18:01:18 UTC 2021
updated : Fri Apr  9 00:01:16 UTC 2021
updated : Fri Apr  9 06:01:22 UTC 2021
updated : Fri Apr  9 12:01:21 UTC 2021
updated : Fri Apr  9 18:01:15 UTC 2021
updated : Sat Apr 10 00:01:18 UTC 2021
updated : Sat Apr 10 06:01:16 UTC 2021
updated : Sat Apr 10 12:01:19 UTC 2021
updated : Sat Apr 10 18:01:20 UTC 2021
updated : Sun Apr 11 00:01:21 UTC 2021
updated : Sun Apr 11 06:01:16 UTC 2021
updated : Sun Apr 11 12:01:24 UTC 2021
updated : Sun Apr 11 18:01:28 UTC 2021
updated : Mon Apr 12 00:01:16 UTC 2021
updated : Mon Apr 12 06:01:21 UTC 2021
updated : Mon Apr 12 12:01:20 UTC 2021
updated : Mon Apr 12 18:01:20 UTC 2021
updated : Tue Apr 13 00:01:32 UTC 2021
updated : Tue Apr 13 06:01:25 UTC 2021
updated : Tue Apr 13 12:01:23 UTC 2021
updated : Tue Apr 13 18:01:20 UTC 2021
updated : Wed Apr 14 00:01:21 UTC 2021
updated : Wed Apr 14 06:01:25 UTC 2021
updated : Wed Apr 14 12:01:25 UTC 2021
updated : Wed Apr 14 18:01:15 UTC 2021
updated : Thu Apr 15 00:01:18 UTC 2021
updated : Thu Apr 15 06:01:17 UTC 2021
updated : Thu Apr 15 12:02:04 UTC 2021
updated : Thu Apr 15 18:01:24 UTC 2021
updated : Fri Apr 16 00:01:18 UTC 2021
updated : Fri Apr 16 06:01:20 UTC 2021
updated : Fri Apr 16 12:01:23 UTC 2021
updated : Fri Apr 16 18:01:24 UTC 2021
updated : Sat Apr 17 00:01:25 UTC 2021
updated : Sat Apr 17 06:01:16 UTC 2021
updated : Sat Apr 17 12:01:21 UTC 2021
updated : Sat Apr 17 18:01:23 UTC 2021
updated : Sun Apr 18 00:01:23 UTC 2021
updated : Sun Apr 18 06:01:21 UTC 2021
updated : Sun Apr 18 12:01:15 UTC 2021
updated : Sun Apr 18 18:01:25 UTC 2021
updated : Mon Apr 19 00:01:17 UTC 2021
updated : Mon Apr 19 06:01:18 UTC 2021
updated : Mon Apr 19 12:01:24 UTC 2021
updated : Mon Apr 19 18:01:22 UTC 2021
updated : Tue Apr 20 00:01:22 UTC 2021
updated : Tue Apr 20 06:01:19 UTC 2021
updated : Tue Apr 20 12:01:24 UTC 2021
updated : Tue Apr 20 18:01:24 UTC 2021
updated : Wed Apr 21 00:01:16 UTC 2021
updated : Wed Apr 21 06:01:23 UTC 2021
updated : Wed Apr 21 12:01:23 UTC 2021
updated : Wed Apr 21 18:01:21 UTC 2021
updated : Thu Apr 22 00:01:21 UTC 2021
updated : Thu Apr 22 06:01:21 UTC 2021
updated : Thu Apr 22 12:01:24 UTC 2021
updated : Thu Apr 22 18:01:16 UTC 2021
updated : Fri Apr 23 00:01:21 UTC 2021
updated : Fri Apr 23 06:01:20 UTC 2021
updated : Fri Apr 23 12:01:23 UTC 2021
updated : Fri Apr 23 18:01:23 UTC 2021
updated : Sat Apr 24 00:01:22 UTC 2021
updated : Sat Apr 24 06:01:17 UTC 2021
updated : Sat Apr 24 12:01:20 UTC 2021
updated : Sat Apr 24 18:01:22 UTC 2021
updated : Sun Apr 25 00:01:23 UTC 2021
updated : Sun Apr 25 06:01:16 UTC 2021
updated : Sun Apr 25 12:01:18 UTC 2021
updated : Sun Apr 25 18:01:17 UTC 2021
updated : Mon Apr 26 00:01:17 UTC 2021
updated : Mon Apr 26 06:01:23 UTC 2021
updated : Mon Apr 26 12:01:25 UTC 2021
updated : Mon Apr 26 18:01:23 UTC 2021
updated : Tue Apr 27 00:01:18 UTC 2021
updated : Tue Apr 27 06:01:22 UTC 2021
updated : Tue Apr 27 12:01:19 UTC 2021
updated : Tue Apr 27 18:01:21 UTC 2021
updated : Wed Apr 28 00:01:24 UTC 2021
updated : Wed Apr 28 06:01:23 UTC 2021
updated : Wed Apr 28 12:01:19 UTC 2021
updated : Wed Apr 28 18:01:16 UTC 2021
updated : Thu Apr 29 00:01:22 UTC 2021
updated : Thu Apr 29 06:01:21 UTC 2021
updated : Thu Apr 29 12:01:19 UTC 2021
updated : Thu Apr 29 18:01:20 UTC 2021
updated : Fri Apr 30 00:01:16 UTC 2021
updated : Fri Apr 30 06:01:25 UTC 2021
updated : Fri Apr 30 12:01:28 UTC 2021
updated : Fri Apr 30 18:01:17 UTC 2021
updated : Sat May  1 00:01:18 UTC 2021
updated : Sat May  1 06:01:19 UTC 2021
updated : Sat May  1 12:01:29 UTC 2021
updated : Sat May  1 18:01:24 UTC 2021
updated : Sun May  2 00:01:23 UTC 2021
updated : Sun May  2 06:01:25 UTC 2021
updated : Sun May  2 12:01:24 UTC 2021
updated : Sun May  2 18:01:43 UTC 2021
updated : Mon May  3 00:01:16 UTC 2021
updated : Mon May  3 06:01:21 UTC 2021
updated : Mon May  3 12:01:25 UTC 2021
updated : Mon May  3 18:01:24 UTC 2021
updated : Tue May  4 00:01:23 UTC 2021
updated : Tue May  4 06:01:24 UTC 2021
updated : Tue May  4 12:01:16 UTC 2021
updated : Tue May  4 18:01:16 UTC 2021
updated : Wed May  5 00:01:16 UTC 2021
updated : Wed May  5 06:01:22 UTC 2021
updated : Wed May  5 12:01:24 UTC 2021
updated : Wed May  5 18:01:25 UTC 2021
updated : Thu May  6 00:01:18 UTC 2021
updated : Thu May  6 06:01:18 UTC 2021
updated : Thu May  6 12:01:18 UTC 2021
updated : Thu May  6 18:01:24 UTC 2021
updated : Fri May  7 00:01:16 UTC 2021
updated : Fri May  7 06:01:23 UTC 2021
updated : Fri May  7 12:01:16 UTC 2021
updated : Fri May  7 18:01:38 UTC 2021
updated : Sat May  8 00:01:27 UTC 2021
updated : Sat May  8 06:01:25 UTC 2021
updated : Sat May  8 12:01:18 UTC 2021
updated : Sat May  8 18:01:17 UTC 2021
updated : Sun May  9 00:01:22 UTC 2021
updated : Sun May  9 06:01:23 UTC 2021
updated : Sun May  9 12:01:18 UTC 2021
updated : Sun May  9 18:01:20 UTC 2021
updated : Mon May 10 00:01:24 UTC 2021
updated : Mon May 10 06:01:35 UTC 2021
updated : Mon May 10 12:01:19 UTC 2021
updated : Mon May 10 18:01:29 UTC 2021
updated : Tue May 11 00:01:25 UTC 2021
updated : Tue May 11 06:01:23 UTC 2021
updated : Tue May 11 12:01:17 UTC 2021
updated : Tue May 11 18:01:20 UTC 2021
updated : Wed May 12 00:01:15 UTC 2021
updated : Wed May 12 06:01:24 UTC 2021
updated : Wed May 12 12:01:21 UTC 2021
updated : Wed May 12 18:01:25 UTC 2021
updated : Thu May 13 00:01:23 UTC 2021
updated : Thu May 13 06:01:23 UTC 2021
updated : Thu May 13 12:01:20 UTC 2021
updated : Thu May 13 18:01:20 UTC 2021
updated : Fri May 14 00:01:22 UTC 2021
updated : Fri May 14 06:01:18 UTC 2021
updated : Fri May 14 12:01:25 UTC 2021
updated : Fri May 14 18:01:17 UTC 2021
updated : Sat May 15 00:01:18 UTC 2021
updated : Sat May 15 06:01:21 UTC 2021
updated : Sat May 15 12:01:20 UTC 2021
updated : Sat May 15 18:01:24 UTC 2021
updated : Sun May 16 00:01:28 UTC 2021
updated : Sun May 16 06:01:22 UTC 2021
updated : Sun May 16 12:01:21 UTC 2021
updated : Sun May 16 18:01:20 UTC 2021
updated : Mon May 17 00:01:21 UTC 2021
updated : Mon May 17 06:01:20 UTC 2021
updated : Mon May 17 12:01:17 UTC 2021
updated : Mon May 17 18:01:20 UTC 2021
updated : Tue May 18 00:01:23 UTC 2021
updated : Tue May 18 06:01:27 UTC 2021
updated : Tue May 18 12:01:21 UTC 2021
updated : Tue May 18 18:01:25 UTC 2021
updated : Wed May 19 00:01:26 UTC 2021
updated : Wed May 19 06:01:21 UTC 2021
updated : Wed May 19 12:01:17 UTC 2021
updated : Wed May 19 18:01:39 UTC 2021
updated : Thu May 20 00:01:23 UTC 2021
updated : Thu May 20 06:01:16 UTC 2021
updated : Thu May 20 12:01:16 UTC 2021
updated : Thu May 20 18:01:23 UTC 2021
updated : Fri May 21 00:01:21 UTC 2021
updated : Sun Jul 18 14:01:17 UTC 2021
updated : Sun Jul 18 18:01:17 UTC 2021
updated : Mon Jul 19 00:01:18 UTC 2021
updated : Mon Jul 19 06:01:24 UTC 2021
updated : Mon Jul 19 12:01:27 UTC 2021
updated : Mon Jul 19 18:01:32 UTC 2021
updated : Tue Jul 20 00:01:24 UTC 2021
updated : Tue Jul 20 06:01:17 UTC 2021
updated : Tue Jul 20 12:01:18 UTC 2021
updated : Tue Jul 20 18:01:18 UTC 2021
updated : Wed Jul 21 00:01:18 UTC 2021
updated : Wed Jul 21 06:01:27 UTC 2021
updated : Wed Jul 21 12:01:30 UTC 2021
updated : Wed Jul 21 18:01:18 UTC 2021
updated : Thu Jul 22 00:01:30 UTC 2021
updated : Thu Jul 22 06:01:22 UTC 2021
updated : Thu Jul 22 12:01:23 UTC 2021
updated : Thu Jul 22 18:01:17 UTC 2021
updated : Fri Jul 23 00:01:20 UTC 2021
updated : Fri Jul 23 06:01:22 UTC 2021
updated : Fri Jul 23 12:01:23 UTC 2021
updated : Fri Jul 23 18:01:18 UTC 2021
updated : Sat Jul 24 00:01:23 UTC 2021
updated : Sat Jul 24 06:01:21 UTC 2021
updated : Sat Jul 24 12:01:21 UTC 2021
updated : Sat Jul 24 18:01:18 UTC 2021
updated : Sun Jul 25 00:01:23 UTC 2021
updated : Sun Jul 25 06:01:21 UTC 2021
updated : Sun Jul 25 12:01:17 UTC 2021
updated : Sun Jul 25 18:01:45 UTC 2021
updated : Mon Jul 26 00:01:20 UTC 2021
updated : Mon Jul 26 06:01:17 UTC 2021
updated : Mon Jul 26 12:01:35 UTC 2021
updated : Mon Jul 26 18:01:24 UTC 2021
updated : Tue Jul 27 00:01:23 UTC 2021
updated : Tue Jul 27 06:01:19 UTC 2021
updated : Mon Sep  6 18:01:23 UTC 2021
updated : Tue Sep  7 00:01:25 UTC 2021
updated : Tue Sep  7 06:01:25 UTC 2021
updated : Tue Sep  7 12:01:19 UTC 2021
updated : Tue Sep  7 18:01:17 UTC 2021
updated : Wed Sep  8 00:01:23 UTC 2021
updated : Wed Sep  8 06:01:21 UTC 2021
updated : Wed Sep  8 12:01:21 UTC 2021
updated : Wed Sep  8 18:01:21 UTC 2021
updated : Thu Sep  9 00:01:40 UTC 2021
updated : Thu Sep  9 06:01:19 UTC 2021
updated : Thu Sep  9 12:01:27 UTC 2021
updated : Thu Sep  9 18:01:26 UTC 2021
updated : Fri Sep 10 00:01:22 UTC 2021
updated : Fri Sep 10 06:01:23 UTC 2021
updated : Fri Sep 10 12:01:17 UTC 2021
updated : Fri Sep 10 18:01:20 UTC 2021
updated : Sat Sep 11 00:01:19 UTC 2021
updated : Sat Sep 11 06:01:18 UTC 2021
updated : Sat Sep 11 12:01:17 UTC 2021
updated : Sat Sep 11 18:01:21 UTC 2021
updated : Tue Jan 18 09:31:06 PM CST 2022
updated : Thu Jan 20 03:43:41 AM CST 2022
updated : Fri Jan 21 11:02:27 PM CST 2022
updated : Sun Jan 23 04:17:00 AM CST 2022
updated : Sun Jan 23 06:48:05 AM CST 2022
updated : Wed Jan 26 09:49:15 PM CST 2022
updated : Sat Jan 29 11:23:09 PM CST 2022
updated : Sat Jan 29 11:24:12 PM CST 2022
updated : Tue Feb  1 10:53:14 PM CST 2022
updated : Mon Feb 21 07:05:54 PM CST 2022
updated : Sat Feb 26 09:36:07 AM CST 2022
updated : Sat Feb 26 10:00:57 AM CST 2022
updated : Mon Feb 28 08:59:08 PM CST 2022
updated : Tue Mar  1 09:06:49 PM CST 2022
updated : Wed Mar  2 09:00:42 PM CST 2022
